// Jest Snapshot v1, https://goo.gl/fbAQLP

exports[`docs/rules/close-attr.md inline validation: correct 1`] = `Array []`;

exports[`docs/rules/close-attr.md inline validation: incorrect 1`] = `
Array [
  Object {
    "errorCount": 1,
    "filePath": "inline",
    "messages": Array [
      Object {
        "column": 20,
        "context": undefined,
        "line": 1,
        "message": "Close tags cannot have attributes",
        "offset": 19,
        "ruleId": "close-attr",
        "severity": 2,
        "size": 1,
      },
    ],
    "source": "<div></div id=\\"foo\\">",
    "warningCount": 0,
  },
]
`;
