// Jest Snapshot v1, https://goo.gl/fbAQLP

exports[`docs/rules/close-order.md inline validation: correct 1`] = `Array []`;

exports[`docs/rules/close-order.md inline validation: incorrect 1`] = `
Array [
  Object {
    "errorCount": 2,
    "filePath": "inline",
    "messages": Array [
      Object {
        "column": 13,
        "context": undefined,
        "line": 1,
        "message": "Mismatched close-tag, expected '</strong>' but found '</p>'.",
        "offset": 12,
        "ruleId": "close-order",
        "severity": 2,
        "size": 2,
      },
      Object {
        "column": 17,
        "context": undefined,
        "line": 1,
        "message": "Mismatched close-tag, expected '</p>' but found '</strong>'.",
        "offset": 16,
        "ruleId": "close-order",
        "severity": 2,
        "size": 7,
      },
    ],
    "source": "<p><strong></p></strong>",
    "warningCount": 0,
  },
]
`;
