// Jest Snapshot v1, https://goo.gl/fbAQLP

exports[`docs/rules/long-title.md inline validation: correct 1`] = `Array []`;

exports[`docs/rules/long-title.md inline validation: incorrect 1`] = `
Array [
  Object {
    "errorCount": 1,
    "filePath": "inline",
    "messages": Array [
      Object {
        "column": 142,
        "context": undefined,
        "line": 2,
        "message": "title text cannot be longer than 70 characters",
        "offset": 148,
        "ruleId": "long-title",
        "severity": 2,
        "size": 1,
      },
    ],
    "source": "<head>
    <title>Lorem ipsum dolor sit amet, consectetur adipiscing elit, sed do eiusmod tempor incididunt ut labore et dolore magna aliqua.</title>
</head>",
    "warningCount": 0,
  },
]
`;
