// Jest Snapshot v1, https://goo.gl/fbAQLP

exports[`docs/rules/wcag/h30.md inline validation: correct 1`] = `Array []`;

exports[`docs/rules/wcag/h30.md inline validation: incorrect 1`] = `
Array [
  Object {
    "errorCount": 1,
    "filePath": "inline",
    "messages": Array [
      Object {
        "column": 2,
        "context": undefined,
        "line": 1,
        "message": "Anchor link must have a text describing its purpose",
        "offset": 1,
        "ruleId": "WCAG/H30",
        "severity": 2,
        "size": 1,
      },
    ],
    "source": "<a><img src=\\"cat.gif\\"></a>",
    "warningCount": 0,
  },
]
`;
